%YAML 1.1
%TAG !u! tag:unity3d.com,2011:
--- !u!114 &11400000
MonoBehaviour:
  m_ObjectHideFlags: 0
  m_CorrespondingSourceObject: {fileID: 0}
  m_PrefabInstance: {fileID: 0}
  m_PrefabAsset: {fileID: 0}
  m_GameObject: {fileID: 0}
  m_Enabled: 1
  m_EditorHideFlags: 0
  m_Script: {fileID: 11500000, guid: b43a483486204667b176fd6b69e85b71, type: 3}
  m_Name: LevelMovie
  m_EditorClassIdentifier: 
  rooms:
  - {fileID: 3642820733282385307, guid: a5410ead6478940d98fe2011f5e1382f, type: 3}
  - {fileID: 1885652549400164935, guid: f8f43ba515fcb4e6598f949ada5e0fb0, type: 3}
  - {fileID: 2800822199573447689, guid: 61b17cfeae1154779b9c3e85b24c5ae5, type: 3}
  - {fileID: 7068522490913884430, guid: 89538e069d02f470d9e52b9c75b542bc, type: 3}
  - {fileID: 323041588588525148, guid: bd74ccd25acd84da9a2a09f0cdbdd9b8, type: 3}
