%YAML 1.1
%TAG !u! tag:unity3d.com,2011:
--- !u!114 &11400000
MonoBehaviour:
  m_ObjectHideFlags: 0
  m_CorrespondingSourceObject: {fileID: 0}
  m_PrefabInstance: {fileID: 0}
  m_PrefabAsset: {fileID: 0}
  m_GameObject: {fileID: 0}
  m_Enabled: 1
  m_EditorHideFlags: 0
  m_Script: {fileID: 11500000, guid: b43a483486204667b176fd6b69e85b71, type: 3}
  m_Name: Level7
  m_EditorClassIdentifier: 
  rooms:
  - {fileID: 3119813381042627283, guid: 6bf21204d31e84c96b0f76af28c49373, type: 3}
  - {fileID: 2674240586385671993, guid: 33a286b0c29c146c8a0dea43b3aeeb6d, type: 3}
