%YAML 1.1
%TAG !u! tag:unity3d.com,2011:
--- !u!114 &11400000
MonoBehaviour:
  m_ObjectHideFlags: 0
  m_CorrespondingSourceObject: {fileID: 0}
  m_PrefabInstance: {fileID: 0}
  m_PrefabAsset: {fileID: 0}
  m_GameObject: {fileID: 0}
  m_Enabled: 1
  m_EditorHideFlags: 0
  m_Script: {fileID: 11500000, guid: b43a483486204667b176fd6b69e85b71, type: 3}
  m_Name: Level12
  m_EditorClassIdentifier: 
  rooms:
  - {fileID: 2632835834119639684, guid: 430a27e87fc5a4c6b8aa9a74844d44df, type: 3}
  - {fileID: 2228925035643705897, guid: 04cd1b1f1f0804453a41f237469ec86b, type: 3}
  - {fileID: 2923611511563205908, guid: e972165eca2194763a2879705740ceca, type: 3}
