%YAML 1.1
%TAG !u! tag:unity3d.com,2011:
--- !u!1001 &1487238827707565567
PrefabInstance:
  m_ObjectHideFlags: 0
  serializedVersion: 2
  m_Modification:
    m_TransformParent: {fileID: 0}
    m_Modifications:
    - target: {fileID: 5287440214146763121, guid: 5786153dbc2a94fc5969f3578c8ba401,
        type: 3}
      propertyPath: m_Name
      value: RoomBasicTutorial2
      objectReference: {fileID: 0}
    - target: {fileID: 5287440214146763150, guid: 5786153dbc2a94fc5969f3578c8ba401,
        type: 3}
      propertyPath: m_LocalPosition.x
      value: 0
      objectReference: {fileID: 0}
    - target: {fileID: 5287440214146763150, guid: 5786153dbc2a94fc5969f3578c8ba401,
        type: 3}
      propertyPath: m_LocalPosition.y
      value: 0
      objectReference: {fileID: 0}
    - target: {fileID: 5287440214146763150, guid: 5786153dbc2a94fc5969f3578c8ba401,
        type: 3}
      propertyPath: m_LocalPosition.z
      value: 0
      objectReference: {fileID: 0}
    - target: {fileID: 5287440214146763150, guid: 5786153dbc2a94fc5969f3578c8ba401,
        type: 3}
      propertyPath: m_LocalRotation.x
      value: 0
      objectReference: {fileID: 0}
    - target: {fileID: 5287440214146763150, guid: 5786153dbc2a94fc5969f3578c8ba401,
        type: 3}
      propertyPath: m_LocalRotation.y
      value: 0
      objectReference: {fileID: 0}
    - target: {fileID: 5287440214146763150, guid: 5786153dbc2a94fc5969f3578c8ba401,
        type: 3}
      propertyPath: m_LocalRotation.z
      value: 0
      objectReference: {fileID: 0}
    - target: {fileID: 5287440214146763150, guid: 5786153dbc2a94fc5969f3578c8ba401,
        type: 3}
      propertyPath: m_LocalRotation.w
      value: 1
      objectReference: {fileID: 0}
    - target: {fileID: 5287440214146763150, guid: 5786153dbc2a94fc5969f3578c8ba401,
        type: 3}
      propertyPath: m_RootOrder
      value: 0
      objectReference: {fileID: 0}
    - target: {fileID: 5287440214146763150, guid: 5786153dbc2a94fc5969f3578c8ba401,
        type: 3}
      propertyPath: m_LocalEulerAnglesHint.x
      value: 0
      objectReference: {fileID: 0}
    - target: {fileID: 5287440214146763150, guid: 5786153dbc2a94fc5969f3578c8ba401,
        type: 3}
      propertyPath: m_LocalEulerAnglesHint.y
      value: 0
      objectReference: {fileID: 0}
    - target: {fileID: 5287440214146763150, guid: 5786153dbc2a94fc5969f3578c8ba401,
        type: 3}
      propertyPath: m_LocalEulerAnglesHint.z
      value: 0
      objectReference: {fileID: 0}
    - target: {fileID: 5756068286810135860, guid: 5786153dbc2a94fc5969f3578c8ba401,
        type: 3}
      propertyPath: m_Mesh
      value: 
      objectReference: {fileID: 0}
    m_RemovedComponents: []
  m_SourcePrefab: {fileID: 100100000, guid: 5786153dbc2a94fc5969f3578c8ba401, type: 3}
