%YAML 1.1
%TAG !u! tag:unity3d.com,2011:
--- !u!114 &11400000
MonoBehaviour:
  m_ObjectHideFlags: 0
  m_CorrespondingSourceObject: {fileID: 0}
  m_PrefabInstance: {fileID: 0}
  m_PrefabAsset: {fileID: 0}
  m_GameObject: {fileID: 0}
  m_Enabled: 1
  m_EditorHideFlags: 0
  m_Script: {fileID: 11500000, guid: 07aff2949efae4c44a97c9310351e296, type: 3}
  m_Name: Level9
  m_EditorClassIdentifier: 
  initialColors: {fileID: 2800000, guid: 04a7a82e4ba384b69ab55dba02b16b7d, type: 3}
  desiredColors: {fileID: 2800000, guid: 3d4ea708abd7d45c2a3c93e314e8ed91, type: 3}
  name: Level9
  cameraFov: 18
  yOffset: 0
  scale: 0.4
  colors: []
  tutorialStep: []
