%YAML 1.1
%TAG !u! tag:unity3d.com,2011:
--- !u!114 &11400000
MonoBehaviour:
  m_ObjectHideFlags: 0
  m_CorrespondingSourceObject: {fileID: 0}
  m_PrefabInstance: {fileID: 0}
  m_PrefabAsset: {fileID: 0}
  m_GameObject: {fileID: 0}
  m_Enabled: 1
  m_EditorHideFlags: 0
  m_Script: {fileID: 11500000, guid: 07aff2949efae4c44a97c9310351e296, type: 3}
  m_Name: Level4
  m_EditorClassIdentifier: 
  initialColors: {fileID: 2800000, guid: efd90f4c3ebc44f0093d46fa126cbddf, type: 3}
  desiredColors: {fileID: 2800000, guid: da22cdbd918624194b1eaaa67b8cb3fa, type: 3}
  name: Level4
  cameraFov: 20
  yOffset: 0
  scale: 0.45
  colors: []
  tutorialStep: []
