%YAML 1.1
%TAG !u! tag:unity3d.com,2011:
--- !u!114 &11400000
MonoBehaviour:
  m_ObjectHideFlags: 0
  m_CorrespondingSourceObject: {fileID: 0}
  m_PrefabInstance: {fileID: 0}
  m_PrefabAsset: {fileID: 0}
  m_GameObject: {fileID: 0}
  m_Enabled: 1
  m_EditorHideFlags: 0
  m_Script: {fileID: 11500000, guid: 07aff2949efae4c44a97c9310351e296, type: 3}
  m_Name: Level3
  m_EditorClassIdentifier: 
  initialColors: {fileID: 2800000, guid: af61e827bacaf467c9c0dc07f2f013ae, type: 3}
  desiredColors: {fileID: 2800000, guid: 612f89d8652ef4789aec7092eb813d63, type: 3}
  name: Level3
  cameraFov: 20
  yOffset: 0
  scale: 0.45
  colors:
  - from: {r: 1, g: 0, b: 0, a: 1}
    to: {r: 0, g: 1, b: 0, a: 1}
  tutorialStep: []
