%YAML 1.1
%TAG !u! tag:unity3d.com,2011:
--- !u!114 &11400000
MonoBehaviour:
  m_ObjectHideFlags: 0
  m_CorrespondingSourceObject: {fileID: 0}
  m_PrefabInstance: {fileID: 0}
  m_PrefabAsset: {fileID: 0}
  m_GameObject: {fileID: 0}
  m_Enabled: 1
  m_EditorHideFlags: 0
  m_Script: {fileID: 11500000, guid: 07aff2949efae4c44a97c9310351e296, type: 3}
  m_Name: Level5
  m_EditorClassIdentifier: 
  initialColors: {fileID: 2800000, guid: 6784c961213614b6eb3b204662d67ef4, type: 3}
  desiredColors: {fileID: 2800000, guid: 97ff92904056a40c387f85be65cc27d6, type: 3}
  name: Level5
  cameraFov: 14
  yOffset: 0
  scale: 0.4
  colors:
  - from: {r: 0, g: 0, b: 1, a: 1}
    to: {r: 1, g: 0, b: 0, a: 1}
  tutorialStep: []
