%YAML 1.1
%TAG !u! tag:unity3d.com,2011:
--- !u!1 &1083468122507170957
GameObject:
  m_ObjectHideFlags: 0
  m_CorrespondingSourceObject: {fileID: 0}
  m_PrefabInstance: {fileID: 0}
  m_PrefabAsset: {fileID: 0}
  serializedVersion: 6
  m_Component:
  - component: {fileID: 3550117466884264857}
  - component: {fileID: -7671575257798688876}
  m_Layer: 0
  m_Name: tutorial1Patern
  m_TagString: Untagged
  m_Icon: {fileID: 0}
  m_NavMeshLayer: 0
  m_StaticEditorFlags: 0
  m_IsActive: 1
--- !u!4 &3550117466884264857
Transform:
  m_ObjectHideFlags: 0
  m_CorrespondingSourceObject: {fileID: 0}
  m_PrefabInstance: {fileID: 0}
  m_PrefabAsset: {fileID: 0}
  m_GameObject: {fileID: 1083468122507170957}
  m_LocalRotation: {x: 0, y: 0, z: 0, w: 1}
  m_LocalPosition: {x: 0, y: 0, z: 0}
  m_LocalScale: {x: 1, y: 1, z: 1}
  m_Children:
  - {fileID: 1920524533431742721}
  m_Father: {fileID: 0}
  m_RootOrder: 0
  m_LocalEulerAnglesHint: {x: 0, y: 0, z: 0}
--- !u!114 &-7671575257798688876
MonoBehaviour:
  m_ObjectHideFlags: 0
  m_CorrespondingSourceObject: {fileID: 0}
  m_PrefabInstance: {fileID: 0}
  m_PrefabAsset: {fileID: 0}
  m_GameObject: {fileID: 1083468122507170957}
  m_Enabled: 1
  m_EditorHideFlags: 0
  m_Script: {fileID: 11500000, guid: e5101b3a4a1214c978defb84d2895a84, type: 3}
  m_Name: 
  m_EditorClassIdentifier: 
  minLevel: 0
  order:
  - EnemyLevel1
  - EnemyLevel2
  - EnemyweaponLevel1
  - BlackEnvironment
  - EnemyLevel3
  - EnemyweaponLevel2
  - EnemyweaponLevel3
--- !u!1001 &6492433637084639691
PrefabInstance:
  m_ObjectHideFlags: 0
  serializedVersion: 2
  m_Modification:
    m_TransformParent: {fileID: 3550117466884264857}
    m_Modifications:
    - target: {fileID: 4665398389261900970, guid: d1409aaf6f3ca49018a698b8763d9382,
        type: 3}
      propertyPath: m_Name
      value: EnemyLevel1
      objectReference: {fileID: 0}
    - target: {fileID: 4665398389262057674, guid: d1409aaf6f3ca49018a698b8763d9382,
        type: 3}
      propertyPath: m_LocalPosition.x
      value: 0
      objectReference: {fileID: 0}
    - target: {fileID: 4665398389262057674, guid: d1409aaf6f3ca49018a698b8763d9382,
        type: 3}
      propertyPath: m_LocalPosition.y
      value: 0
      objectReference: {fileID: 0}
    - target: {fileID: 4665398389262057674, guid: d1409aaf6f3ca49018a698b8763d9382,
        type: 3}
      propertyPath: m_LocalPosition.z
      value: 1
      objectReference: {fileID: 0}
    - target: {fileID: 4665398389262057674, guid: d1409aaf6f3ca49018a698b8763d9382,
        type: 3}
      propertyPath: m_LocalRotation.x
      value: 0
      objectReference: {fileID: 0}
    - target: {fileID: 4665398389262057674, guid: d1409aaf6f3ca49018a698b8763d9382,
        type: 3}
      propertyPath: m_LocalRotation.y
      value: 0
      objectReference: {fileID: 0}
    - target: {fileID: 4665398389262057674, guid: d1409aaf6f3ca49018a698b8763d9382,
        type: 3}
      propertyPath: m_LocalRotation.z
      value: 0
      objectReference: {fileID: 0}
    - target: {fileID: 4665398389262057674, guid: d1409aaf6f3ca49018a698b8763d9382,
        type: 3}
      propertyPath: m_LocalRotation.w
      value: 1
      objectReference: {fileID: 0}
    - target: {fileID: 4665398389262057674, guid: d1409aaf6f3ca49018a698b8763d9382,
        type: 3}
      propertyPath: m_RootOrder
      value: 0
      objectReference: {fileID: 0}
    - target: {fileID: 4665398389262057674, guid: d1409aaf6f3ca49018a698b8763d9382,
        type: 3}
      propertyPath: m_LocalEulerAnglesHint.x
      value: 0
      objectReference: {fileID: 0}
    - target: {fileID: 4665398389262057674, guid: d1409aaf6f3ca49018a698b8763d9382,
        type: 3}
      propertyPath: m_LocalEulerAnglesHint.y
      value: 179.99998
      objectReference: {fileID: 0}
    - target: {fileID: 4665398389262057674, guid: d1409aaf6f3ca49018a698b8763d9382,
        type: 3}
      propertyPath: m_LocalEulerAnglesHint.z
      value: 0
      objectReference: {fileID: 0}
    m_RemovedComponents: []
  m_SourcePrefab: {fileID: 100100000, guid: d1409aaf6f3ca49018a698b8763d9382, type: 3}
--- !u!4 &1920524533431742721 stripped
Transform:
  m_CorrespondingSourceObject: {fileID: 4665398389262057674, guid: d1409aaf6f3ca49018a698b8763d9382,
    type: 3}
  m_PrefabInstance: {fileID: 6492433637084639691}
  m_PrefabAsset: {fileID: 0}
