%YAML 1.1
%TAG !u! tag:unity3d.com,2011:
--- !u!114 &11400000
MonoBehaviour:
  m_ObjectHideFlags: 0
  m_CorrespondingSourceObject: {fileID: 0}
  m_PrefabInstance: {fileID: 0}
  m_PrefabAsset: {fileID: 0}
  m_GameObject: {fileID: 0}
  m_Enabled: 1
  m_EditorHideFlags: 0
  m_Script: {fileID: 11500000, guid: 2157bbd4d91f43b43b13039b1e5c0418, type: 3}
  m_Name: HorseCommon5
  m_EditorClassIdentifier: 
  name: Horses
  customizationSprite: {fileID: 21300000, guid: 70aace4b2c7940d409fffdac2ad07dc8,
    type: 3}
  category: {fileID: 11400000, guid: 696c37f81e5df2244bc7676f621d8765, type: 2}
  customizationClass: {fileID: 11400000, guid: a7bd6dd3362fa7a48833fe09beb2cf82, type: 2}
