%YAML 1.1
%TAG !u! tag:unity3d.com,2011:
--- !u!114 &11400000
MonoBehaviour:
  m_ObjectHideFlags: 0
  m_CorrespondingSourceObject: {fileID: 0}
  m_PrefabInstance: {fileID: 0}
  m_PrefabAsset: {fileID: 0}
  m_GameObject: {fileID: 0}
  m_Enabled: 1
  m_EditorHideFlags: 0
  m_Script: {fileID: 11500000, guid: 1c698109062b2f140ac15f4bf3478161, type: 3}
  m_Name: Legendary
  m_EditorClassIdentifier: 
  name: Legendary
  priority: 3
  unlockType: 2
  price: 1500
  description: UNLOCK FROM REWARDS
