# ProBuilder 4.2.3
# https://unity3d.com/unity/features/worldbuilding/probuilder
# 4/24/2020 2:06:52 PM

mtllib ./CubeBeveled.mtl
o CubeBeveled

g Cube
v -0.05 0.05 0
v -0.95 0.05 0
v -0.05 0.95 0
v -0.95 0.95 0
v -1 0.05 -0.05
v -1 0.05 -0.95
v -1 0.95 -0.05
v -1 0.95 -0.95
v -0.95 0.05 -1
v -0.05 0.05 -1
v -0.95 0.95 -1
v -0.05 0.95 -1
v 0 0.05 -0.95
v 0 0.05 -0.05
v 0 0.95 -0.95
v 0 0.95 -0.05
v -0.05 1 -0.05
v -0.95 1 -0.05
v -0.05 1 -0.95
v -0.95 1 -0.95
v -0.05 0 -0.95
v -0.95 0 -0.95
v -0.05 0 -0.05
v -0.95 0 -0.05

vt -0.05 0.05
vt -0.95 0.05
vt -0.05 0.95
vt -0.95 0.95
vt 0.95 0.05
vt 0.05 0.05
vt 0.95 0.95
vt 0.05 0.95
vt 0.05 -0.05
vt 0.95 -0.05
vt 0.05 -0.95
vt 0.95 -0.95
vt -0.05 -0.95
vt -0.95 -0.95
vt -0.05 -0.05
vt -0.95 -0.05
vt -0.05 0.03535534
vt -0.95 0.03535534
vt -0.05 -0.03535534
vt -0.95 -0.03535534
vt -0.03535534 0.95
vt -0.03535534 0.05
vt 0.03535534 0.95
vt 0.03535534 0.05
vt -0.6717516 0.05
vt -0.6717516 0.95
vt -0.7424622 0.05
vt -0.7424622 0.95
vt -0.95 0.6717516
vt -0.05 0.6717516
vt -0.95 0.7424622
vt -0.05 0.7424622
vt 0.95 0.7424622
vt 0.05 0.7424622
vt 0.95 0.6717516
vt 0.05 0.6717516
vt 0.03535534 -0.95
vt 0.03535534 -0.05
vt -0.03535534 -0.95
vt -0.03535534 -0.05
vt -0.7424622 -0.05
vt -0.7424622 -0.95
vt -0.6717516 -0.05
vt -0.6717516 -0.95
vt 0.7424622 0.05
vt 0.7424622 0.95
vt 0.6717516 0.05
vt 0.6717516 0.95
vt 0.6717516 -0.05
vt 0.6717516 -0.95
vt 0.7424622 -0.05
vt 0.7424622 -0.95
vt 0.05 -0.03535535
vt 0.95 -0.03535535
vt 0.05 0.03535535
vt 0.95 0.03535535
vt -0.03535534 0.02041241
vt 0 -0.04082483
vt 0.03535534 0.02041241
vt -0.6717516 0.4286607
vt -0.7071069 0.3674234
vt -0.7424622 0.4286607
vt -0.03535534 0.7960842
vt 0.03535534 0.7960842
vt 0 0.8573215
vt -0.6717515 0.3878359
vt -0.7424622 0.3878359
vt -0.7071068 0.4490731
vt -0.03535535 0.836909
vt 0 0.7756718
vt 0.03535535 0.836909
vt 0.7424622 0.4286607
vt 0.7071069 0.3674234
vt 0.6717516 0.4286607
vt 0.7424622 0.3878359
vt 0.6717515 0.3878359
vt 0.7071068 0.4490731
vt 0.03535535 -0.02041242
vt 0 0.04082484
vt -0.03535535 -0.02041242

vn 0 0 1
vn -1 0 0
vn 0 0 -1
vn 1 0 0
vn 0 1 0
vn 0 -1 0
vn 0 -0.7071068 0.7071068
vn 0.7071068 0 0.7071068
vn -0.7071067 0 0.7071069
vn 0 0.7071067 0.7071069
vn 0 -0.7071069 -0.7071067
vn 0.7071068 -0.7071068 0
vn -0.7071067 -0.7071069 0
vn 0.7071069 0 -0.7071067
vn 0.7071069 0.7071067 0
vn -0.7071068 0.7071068 0
vn 0 0.7071068 -0.7071068
vn -0.7071068 0 -0.7071068
vn 0.5773503 -0.5773503 0.5773503
vn -0.5773502 -0.5773503 0.5773503
vn 0.5773503 0.5773502 0.5773503
vn -0.5773503 0.5773503 0.5773503
vn -0.5773503 -0.5773503 -0.5773503
vn 0.5773503 -0.5773503 -0.5773502
vn 0.5773503 0.5773503 -0.5773503
vn -0.5773503 0.5773503 -0.5773503

usemtl ProBuilderDefault
f 1/57/19 23/58/19 14/59/19
f 5/62/20 24/61/20 2/60/20
f 3/63/21 16/64/21 17/65/21
f 18/68/22 7/67/22 4/66/22
f 9/69/23 22/70/23 6/71/23
f 13/74/24 21/73/24 10/72/24
f 19/77/25 15/76/25 12/75/25
f 8/78/26 20/79/26 11/80/26
f 4/4/1 2/2/1 1/1/1
f 1/1/1 3/3/1 4/4/1
f 8/4/2 6/2/2 5/1/2
f 5/1/2 7/3/2 8/4/2
f 12/8/3 10/6/3 9/5/3
f 9/5/3 11/7/3 12/8/3
f 16/8/4 14/6/4 13/5/4
f 13/5/4 15/7/4 16/8/4
f 20/12/5 18/10/5 17/9/5
f 17/9/5 19/11/5 20/12/5
f 24/16/6 22/14/6 21/13/6
f 21/13/6 23/15/6 24/16/6
f 23/19/7 1/17/7 2/18/7
f 2/18/7 24/20/7 23/19/7
f 16/23/8 3/21/8 1/22/8
f 1/22/8 14/24/8 16/23/8
f 5/27/9 2/25/9 4/26/9
f 4/26/9 7/28/9 5/27/9
f 18/31/10 4/29/10 3/30/10
f 3/30/10 17/32/10 18/31/10
f 22/35/11 9/33/11 10/34/11
f 10/34/11 21/36/11 22/35/11
f 21/39/12 13/37/12 14/38/12
f 14/38/12 23/40/12 21/39/12
f 24/43/13 5/41/13 6/42/13
f 6/42/13 22/44/13 24/43/13
f 13/47/14 10/45/14 12/46/14
f 12/46/14 15/48/14 13/47/14
f 17/51/15 16/49/15 15/50/15
f 15/50/15 19/52/15 17/51/15
f 20/39/16 8/37/16 7/38/16
f 7/38/16 18/40/16 20/39/16
f 19/55/17 12/53/17 11/54/17
f 11/54/17 20/56/17 19/55/17
f 9/22/18 6/24/18 8/23/18
f 8/23/18 11/21/18 9/22/18

